{
    "name": "Load Balancers",
    "type": "Denial of Service",
    "intent": "A Load Balancer is a critical component in a distributed system or network that manages and optimizes the distribution of incoming network or application traffic across multiple servers or services.",
    "design_patterns": [
        {
            "name": "Generic Load Balancer",
            "description": "This design pattern is a generic model on how the Load Balancer pattern works.",
            "structure": [
                {
                    "diagram_metadata": {
                        "diagram_type": "class",
                        "version": "2.0.0"
                    },
                    "name": "Logical view on Load Balancing with a Single Load Balancer",
                    "description": "This class diagram serves as a logical view on how a web application with a Load Balancer for load balancing works. A Web Service is deployed on different Web Servers. The Load Balancer decides to which Web Server the request shall be forwarded depending on the current load of each Web Server.",
                    "scope": "loose",
                    "classes": [
                        {
                            "id": "load_balancer",
                            "name": "Load Balancer",
                            "stereotype": "component"
                        },
                        {
                            "id": "ws1",
                            "name": "Web Server 1",
                            "stereotype": "server",
                            "attributes": [
                                {
                                    "name": "Web Service",
                                    "type": "Web Service"
                                }
                            ]
                        },
                        {
                            "id": "ws2",
                            "name": "Web Server 2",
                            "stereotype": "server",
                            "attributes": [
                                {
                                    "name": "Web Service",
                                    "type": "Web Service"
                                }
                            ]
                        },
                        {
                            "id": "ws3",
                            "name": "Web Server 3",
                            "stereotype": "server",
                            "attributes": [
                                {
                                    "name": "Web Service",
                                    "type": "Web Service"
                                }
                            ]
                        },
                        {
                            "id": "internal",
                            "name": "Some Internal Server",
                            "stereotype": "server"
                        }
                    ],
                    "associations": [
                        {
                            "id": "rel1",
                            "name": "balances load",
                            "type": "association",
                            "entities": [
                                {
                                    "id": "load_balancer",
                                    "role": "source",
                                    "multiplicity": "1..*",
                                    "navigability": "not_navigable"
                                },
                                {
                                    "id": "ws1",
                                    "role": "target",
                                    "multiplicity": "1..*",
                                    "navigability": "unspecified"
                                }
                            ]
                        },
                        {
                            "id": "rel2",
                            "name": "balances load",
                            "type": "association",
                            "entities": [
                                {
                                    "id": "load_balancer",
                                    "role": "source",
                                    "multiplicity": "1..*",
                                    "navigability": "not_navigable"
                                },
                                {
                                    "id": "ws2",
                                    "role": "target",
                                    "multiplicity": "1..*",
                                    "navigability": "unspecified"
                                }
                            ]
                        },
                        {
                            "id": "rel3",
                            "name": "balances load",
                            "type": "association",
                            "entities": [
                                {
                                    "id": "load_balancer",
                                    "role": "source",
                                    "multiplicity": "1..*",
                                    "navigability": "not_navigable"
                                },
                                {
                                    "id": "ws3",
                                    "role": "target",
                                    "multiplicity": "1..*",
                                    "navigability": "unspecified"
                                }
                            ]
                        },
                        {
                            "id": "rel4",
                            "name": "uses",
                            "type": "association",
                            "entities": [
                                {
                                    "id": "ws1",
                                    "role": "source",
                                    "multiplicity": "1..*",
                                    "navigability": "not_navigable"
                                },
                                {
                                    "id": "internal",
                                    "role": "target",
                                    "multiplicity": "1..*",
                                    "navigability": "unspecified"
                                }
                            ]
                        },
                        {
                            "id": "rel5",
                            "name": "uses",
                            "type": "association",
                            "entities": [
                                {
                                    "id": "ws2",
                                    "role": "source",
                                    "multiplicity": "1..*",
                                    "navigability": "not_navigable"
                                },
                                {
                                    "id": "internal",
                                    "role": "target",
                                    "multiplicity": "1..*",
                                    "navigability": "unspecified"
                                }
                            ]
                        },
                        {
                            "id": "rel6",
                            "name": "uses",
                            "type": "association",
                            "entities": [
                                {
                                    "id": "ws3",
                                    "role": "source",
                                    "multiplicity": "1..*",
                                    "navigability": "not_navigable"
                                },
                                {
                                    "id": "internal",
                                    "role": "target",
                                    "multiplicity": "1..*",
                                    "navigability": "unspecified"
                                }
                            ]
                        }
                    ]
                },
                {
                    "diagram_metadata": {
                        "diagram_type": "class",
                        "version": "2.0.0"
                    },
                    "name": "Logical view on Load Balancing with a Single Load Balancer for multiple Web Services.",
                    "description": "This class diagram serves as a logical view on how a web application with a Load Balancer for load balancing works for multiple web services. Web Service A and Web Service B are deployed on different Web Servers. The Load Balancer decides to which Web Server the request shall be forwarded depending on the current load of each Web Server.",
                    "scope": "loose",
                    "classes": [
                        {
                            "id": "load_balancer",
                            "name": "Load Balancer",
                            "stereotype": "component"
                        },
                        {
                            "id": "ws1",
                            "name": "Web Server 1",
                            "stereotype": "server",
                            "attributes": [
                                {
                                    "name": "Web Service A",
                                    "type": "Web Service"
                                },
                                {
                                    "name": "Web Service B",
                                    "type": "Web Service"
                                }
                            ]
                        },
                        {
                            "id": "ws2",
                            "name": "Web Server 2",
                            "stereotype": "server",
                            "attributes": [
                                {
                                    "name": "Web Service A",
                                    "type": "Web Service"
                                },
                                {
                                    "name": "Web Service B",
                                    "type": "Web Service"
                                }
                            ]
                        },
                        {
                            "id": "ws3",
                            "name": "Web Server 3",
                            "stereotype": "server",
                            "attributes": [
                                {
                                    "name": "Web Service A",
                                    "type": "Web Service"
                                },
                                {
                                    "name": "Web Service B",
                                    "type": "Web Service"
                                }
                            ]
                        },
                        {
                            "id": "internal",
                            "name": "Some Internal Server",
                            "stereotype": "server"
                        }
                    ],
                    "associations": [
                        {
                            "id": "rel1",
                            "name": "balances load",
                            "type": "association",
                            "entities": [
                                {
                                    "id": "load_balancer",
                                    "role": "source",
                                    "multiplicity": "1..*",
                                    "navigability": "not_navigable"
                                },
                                {
                                    "id": "ws1",
                                    "role": "target",
                                    "multiplicity": "1..*",
                                    "navigability": "unspecified"
                                }
                            ]
                        },
                        {
                            "id": "rel2",
                            "name": "balances load",
                            "type": "association",
                            "entities": [
                                {
                                    "id": "load_balancer",
                                    "role": "source",
                                    "multiplicity": "1..*",
                                    "navigability": "not_navigable"
                                },
                                {
                                    "id": "ws2",
                                    "role": "target",
                                    "multiplicity": "1..*",
                                    "navigability": "unspecified"
                                }
                            ]
                        },
                        {
                            "id": "rel3",
                            "name": "balances load",
                            "type": "association",
                            "entities": [
                                {
                                    "id": "load_balancer",
                                    "role": "source",
                                    "multiplicity": "1..*",
                                    "navigability": "not_navigable"
                                },
                                {
                                    "id": "ws3",
                                    "role": "target",
                                    "multiplicity": "1..*",
                                    "navigability": "unspecified"
                                }
                            ]
                        },
                        {
                            "id": "rel4",
                            "name": "uses",
                            "type": "association",
                            "entities": [
                                {
                                    "id": "ws1",
                                    "role": "source",
                                    "multiplicity": "1..*",
                                    "navigability": "not_navigable"
                                },
                                {
                                    "id": "internal",
                                    "role": "target",
                                    "multiplicity": "1..*",
                                    "navigability": "unspecified"
                                }
                            ]
                        },
                        {
                            "id": "rel5",
                            "name": "uses",
                            "type": "association",
                            "entities": [
                                {
                                    "id": "ws2",
                                    "role": "source",
                                    "multiplicity": "1..*",
                                    "navigability": "not_navigable"
                                },
                                {
                                    "id": "internal",
                                    "role": "target",
                                    "multiplicity": "1..*",
                                    "navigability": "unspecified"
                                }
                            ]
                        },
                        {
                            "id": "rel6",
                            "name": "uses",
                            "type": "association",
                            "entities": [
                                {
                                    "id": "ws3",
                                    "role": "source",
                                    "multiplicity": "1..*",
                                    "navigability": "not_navigable"
                                },
                                {
                                    "id": "internal",
                                    "role": "target",
                                    "multiplicity": "1..*",
                                    "navigability": "unspecified"
                                }
                            ]
                        }
                    ]
                }
            ],
            "dynamics": [
                {
                    "diagram_metadata": {
                        "diagram_type": "sequence",
                        "version": "1.0.0"
                    },
                    "name": "Load Balancing Sequence Diagram",
                    "description": "This sequence diagram shows how the Load Balancer balances user requests by monitoring the Web Servers and forwarding the request to another Web Server depending on the current load.",
                    "participants": [
                        {
                            "id": "user",
                            "name": "User",
                            "type": "actor"
                        },
                        {
                            "id": "load_balancer",
                            "name": "Load Balancer",
                            "type": "object"
                        },
                        {
                            "id": "ws1",
                            "name": "Web Server 1",
                            "type": "object"
                        },
                        {
                            "id": "ws2",
                            "name": "Web Server 2",
                            "type": "object"
                        },
                        {
                            "id": "ws3",
                            "name": "Web Server 3",
                            "type": "object"
                        }
                    ],
                    "messages": [
                        {
                            "name": "Request Service",
                            "sender": "user",
                            "receiver": "load_balancer",
                            "type": "synchronous",
                            "sequence_number": 1
                        },
                        {
                            "name": "Monitor Load",
                            "sender": "load_balancer",
                            "receiver": "load_balancer",
                            "type": "synchronous",
                            "sequence_number": 2
                        },
                        {
                            "name": "Check Load Web Server 1",
                            "sender": "load_balancer",
                            "receiver": "ws1",
                            "type": "synchronous",
                            "sequence_number": 3
                        },
                        {
                            "name": "Return Load Web Server 1",
                            "sender": "ws1",
                            "receiver": "load_balancer",
                            "type": "reply",
                            "sequence_number": 4
                        },
                        {
                            "name": "Check Load Web Server 2",
                            "sender": "load_balancer",
                            "receiver": "ws2",
                            "type": "synchronous",
                            "sequence_number": 5
                        },
                        {
                            "name": "Return Load Web Server 2",
                            "sender": "ws2",
                            "receiver": "load_balancer",
                            "type": "reply",
                            "sequence_number": 6
                        },
                        {
                            "name": "Check Load Web Server 3",
                            "sender": "load_balancer",
                            "receiver": "ws3",
                            "type": "synchronous",
                            "sequence_number": 7
                        },
                        {
                            "name": "Return Load Web Server 3",
                            "sender": "ws3",
                            "receiver": "load_balancer",
                            "type": "reply",
                            "sequence_number": 8
                        },
                        {
                            "name": "Forward Request to Web Server 1",
                            "sender": "load_balancer",
                            "receiver": "ws1",
                            "type": "synchronous",
                            "sequence_number": 9
                        },
                        {
                            "name": "Process Request",
                            "sender": "ws1",
                            "receiver": "ws1",
                            "type": "synchronous",
                            "sequence_number": 10
                        },
                        {
                            "name": "Return Response",
                            "sender": "ws1",
                            "receiver": "load_balancer",
                            "type": "reply",
                            "sequence_number": 11
                        },
                        {
                            "name": "Deliver Response",
                            "sender": "load_balancer",
                            "receiver": "user",
                            "type": "reply",
                            "sequence_number": 12
                        },
                        {
                            "name": "Forward Request to Web Server 2",
                            "sender": "load_balancer",
                            "receiver": "ws2",
                            "type": "synchronous",
                            "sequence_number": 13
                        },
                        {
                            "name": "Process Request",
                            "sender": "ws2",
                            "receiver": "ws2",
                            "type": "synchronous",
                            "sequence_number": 14
                        },
                        {
                            "name": "Return Response",
                            "sender": "ws2",
                            "receiver": "load_balancer",
                            "type": "reply",
                            "sequence_number": 15
                        },
                        {
                            "name": "Deliver Response",
                            "sender": "load_balancer",
                            "receiver": "user",
                            "type": "reply",
                            "sequence_number": 16
                        },
                        {
                            "name": "Forward Request to Web Server 3",
                            "sender": "load_balancer",
                            "receiver": "ws3",
                            "type": "synchronous",
                            "sequence_number": 17
                        },
                        {
                            "name": "Process Request",
                            "sender": "ws3",
                            "receiver": "ws3",
                            "type": "synchronous",
                            "sequence_number": 18
                        },
                        {
                            "name": "Return Response",
                            "sender": "ws3",
                            "receiver": "load_balancer",
                            "type": "reply",
                            "sequence_number": 19
                        },
                        {
                            "name": "Deliver Response",
                            "sender": "load_balancer",
                            "receiver": "user",
                            "type": "reply",
                            "sequence_number": 20
                        }
                    ],
                    "fragments": [
                        {
                            "type": "alt",
                            "blocks": [
                                {
                                    "condition": "Web Server 1 has less load",
                                    "sequence_numbers": [
                                        9,
                                        10,
                                        11,
                                        12
                                    ]
                                },
                                {
                                    "condition": "Web Server 2 has less load",
                                    "sequence_numbers": [
                                        13,
                                        14,
                                        15,
                                        16
                                    ]
                                },
                                {
                                    "condition": "Web Server 3 has less load",
                                    "sequence_numbers": [
                                        17,
                                        18,
                                        19,
                                        20
                                    ]
                                }
                            ]
                        }
                    ]
                },
                {
                    "diagram_metadata": {
                        "diagram_type": "sequence",
                        "version": "1.0.0"
                    },
                    "name": "Load Balancing Sequence Diagram",
                    "description": "This sequence diagram shows how the Load Balancer balances user requests by monitoring the Web Servers and forwarding the request to another Web Server depending on the current load. This example shows the workflow with the load balancing of two different web services.",
                    "participants": [
                        {
                            "id": "user1",
                            "name": "User 1",
                            "type": "actor"
                        },
                        {
                            "id": "user2",
                            "name": "User 2",
                            "type": "actor"
                        },
                        {
                            "id": "load_balancer",
                            "name": "Load Balancer",
                            "type": "object"
                        },
                        {
                            "id": "ws1",
                            "name": "Web Server 1",
                            "type": "object"
                        },
                        {
                            "id": "ws2",
                            "name": "Web Server 2",
                            "type": "object"
                        },
                        {
                            "id": "ws3",
                            "name": "Web Server 3",
                            "type": "object"
                        }
                    ],
                    "messages": [
                        {
                            "name": "Request Service A",
                            "sender": "user1",
                            "receiver": "load_balancer",
                            "type": "synchronous",
                            "sequence_number": 1
                        },
                        {
                            "name": "Monitor Load",
                            "sender": "load_balancer",
                            "receiver": "load_balancer",
                            "type": "synchronous",
                            "sequence_number": 2
                        },
                        {
                            "name": "Check Load Web Server 1",
                            "sender": "load_balancer",
                            "receiver": "ws1",
                            "type": "synchronous",
                            "sequence_number": 3
                        },
                        {
                            "name": "Return Load Web Server 1",
                            "sender": "ws1",
                            "receiver": "load_balancer",
                            "type": "reply",
                            "sequence_number": 4
                        },
                        {
                            "name": "Check Load Web Server 2",
                            "sender": "load_balancer",
                            "receiver": "ws2",
                            "type": "synchronous",
                            "sequence_number": 5
                        },
                        {
                            "name": "Return Load Web Server 2",
                            "sender": "ws2",
                            "receiver": "load_balancer",
                            "type": "reply",
                            "sequence_number": 6
                        },
                        {
                            "name": "Check Load Web Server 3",
                            "sender": "load_balancer",
                            "receiver": "ws3",
                            "type": "synchronous",
                            "sequence_number": 7
                        },
                        {
                            "name": "Return Load Web Server 3",
                            "sender": "ws3",
                            "receiver": "load_balancer",
                            "type": "reply",
                            "sequence_number": 8
                        },
                        {
                            "name": "Forward Request to Web Server 1",
                            "sender": "load_balancer",
                            "receiver": "ws1",
                            "type": "synchronous",
                            "sequence_number": 9
                        },
                        {
                            "name": "Process Request",
                            "sender": "ws1",
                            "receiver": "ws1",
                            "type": "synchronous",
                            "sequence_number": 10
                        },
                        {
                            "name": "Return Response",
                            "sender": "ws1",
                            "receiver": "load_balancer",
                            "type": "reply",
                            "sequence_number": 11
                        },
                        {
                            "name": "Deliver Response",
                            "sender": "load_balancer",
                            "receiver": "user1",
                            "type": "reply",
                            "sequence_number": 12
                        },
                        {
                            "name": "Forward Request to Web Server 2",
                            "sender": "load_balancer",
                            "receiver": "ws2",
                            "type": "synchronous",
                            "sequence_number": 13
                        },
                        {
                            "name": "Process Request",
                            "sender": "ws2",
                            "receiver": "ws2",
                            "type": "synchronous",
                            "sequence_number": 14
                        },
                        {
                            "name": "Return Response",
                            "sender": "ws2",
                            "receiver": "load_balancer",
                            "type": "reply",
                            "sequence_number": 15
                        },
                        {
                            "name": "Deliver Response",
                            "sender": "load_balancer",
                            "receiver": "user1",
                            "type": "reply",
                            "sequence_number": 16
                        },
                        {
                            "name": "Forward Request to Web Server 3",
                            "sender": "load_balancer",
                            "receiver": "ws3",
                            "type": "synchronous",
                            "sequence_number": 17
                        },
                        {
                            "name": "Process Request",
                            "sender": "ws3",
                            "receiver": "ws3",
                            "type": "synchronous",
                            "sequence_number": 18
                        },
                        {
                            "name": "Return Response",
                            "sender": "ws3",
                            "receiver": "load_balancer",
                            "type": "reply",
                            "sequence_number": 19
                        },
                        {
                            "name": "Deliver Response",
                            "sender": "load_balancer",
                            "receiver": "user1",
                            "type": "reply",
                            "sequence_number": 20
                        },
                        {
                            "name": "Request Service B",
                            "sender": "user2",
                            "receiver": "load_balancer",
                            "type": "synchronous",
                            "sequence_number": 21
                        },
                        {
                            "name": "Monitor Load",
                            "sender": "load_balancer",
                            "receiver": "load_balancer",
                            "type": "synchronous",
                            "sequence_number": 22
                        },
                        {
                            "name": "Check Load Web Server 1",
                            "sender": "load_balancer",
                            "receiver": "ws1",
                            "type": "synchronous",
                            "sequence_number": 23
                        },
                        {
                            "name": "Return Load Web Server 1",
                            "sender": "ws1",
                            "receiver": "load_balancer",
                            "type": "reply",
                            "sequence_number": 24
                        },
                        {
                            "name": "Check Load Web Server 2",
                            "sender": "load_balancer",
                            "receiver": "ws2",
                            "type": "synchronous",
                            "sequence_number": 25
                        },
                        {
                            "name": "Return Load Web Server 2",
                            "sender": "ws2",
                            "receiver": "load_balancer",
                            "type": "reply",
                            "sequence_number": 26
                        },
                        {
                            "name": "Check Load Web Server 3",
                            "sender": "load_balancer",
                            "receiver": "ws3",
                            "type": "synchronous",
                            "sequence_number": 27
                        },
                        {
                            "name": "Return Load Web Server 3",
                            "sender": "ws3",
                            "receiver": "load_balancer",
                            "type": "reply",
                            "sequence_number": 28
                        },
                        {
                            "name": "Forward Request to Web Server 1",
                            "sender": "load_balancer",
                            "receiver": "ws1",
                            "type": "synchronous",
                            "sequence_number": 29
                        },
                        {
                            "name": "Process Request",
                            "sender": "ws1",
                            "receiver": "ws1",
                            "type": "synchronous",
                            "sequence_number": 30
                        },
                        {
                            "name": "Return Response",
                            "sender": "ws1",
                            "receiver": "load_balancer",
                            "type": "reply",
                            "sequence_number": 31
                        },
                        {
                            "name": "Deliver Response",
                            "sender": "load_balancer",
                            "receiver": "user2",
                            "type": "reply",
                            "sequence_number": 32
                        },
                        {
                            "name": "Forward Request to Web Server 2",
                            "sender": "load_balancer",
                            "receiver": "ws2",
                            "type": "synchronous",
                            "sequence_number": 33
                        },
                        {
                            "name": "Process Request",
                            "sender": "ws2",
                            "receiver": "ws2",
                            "type": "synchronous",
                            "sequence_number": 34
                        },
                        {
                            "name": "Return Response",
                            "sender": "ws2",
                            "receiver": "load_balancer",
                            "type": "reply",
                            "sequence_number": 35
                        },
                        {
                            "name": "Deliver Response",
                            "sender": "load_balancer",
                            "receiver": "user2",
                            "type": "reply",
                            "sequence_number": 36
                        },
                        {
                            "name": "Forward Request to Web Server 3",
                            "sender": "load_balancer",
                            "receiver": "ws3",
                            "type": "synchronous",
                            "sequence_number": 37
                        },
                        {
                            "name": "Process Request",
                            "sender": "ws3",
                            "receiver": "ws3",
                            "type": "synchronous",
                            "sequence_number": 38
                        },
                        {
                            "name": "Return Response",
                            "sender": "ws3",
                            "receiver": "load_balancer",
                            "type": "reply",
                            "sequence_number": 39
                        },
                        {
                            "name": "Deliver Response",
                            "sender": "load_balancer",
                            "receiver": "user2",
                            "type": "reply",
                            "sequence_number": 40
                        }
                    ],
                    "fragments": [
                        {
                            "type": "par",
                            "blocks": [
                                {
                                    "sequence_numbers": [
                                        1,
                                        2,
                                        3,
                                        4,
                                        5,
                                        6,
                                        7,
                                        8,
                                        9,
                                        10,
                                        11,
                                        12,
                                        13,
                                        14,
                                        15,
                                        16,
                                        17,
                                        18,
                                        19,
                                        20
                                    ]
                                },
                                {
                                    "sequence_numbers": [
                                        21,
                                        22,
                                        23,
                                        24,
                                        25,
                                        26,
                                        27,
                                        28,
                                        29,
                                        30,
                                        31,
                                        32,
                                        33,
                                        34,
                                        35,
                                        36,
                                        37,
                                        38,
                                        39,
                                        40
                                    ]
                                }
                            ],
                            "fragments": [
                                {
                                    "type": "alt",
                                    "blocks": [
                                        {
                                            "condition": "Web Server 1 has less load",
                                            "sequence_numbers": [
                                                9,
                                                10,
                                                11,
                                                12
                                            ]
                                        },
                                        {
                                            "condition": "Web Server 2 under heavier load",
                                            "sequence_numbers": [
                                                13,
                                                14,
                                                15,
                                                16
                                            ]
                                        },
                                        {
                                            "condition": "Web Server 3 under heavier load",
                                            "sequence_numbers": [
                                                17,
                                                18,
                                                19,
                                                20
                                            ]
                                        },
                                        {
                                            "condition": "Web Server 1 has less load",
                                            "sequence_numbers": [
                                                29,
                                                30,
                                                31,
                                                32
                                            ]
                                        },
                                        {
                                            "condition": "Web Server 2 under heavier load",
                                            "sequence_numbers": [
                                                33,
                                                34,
                                                35,
                                                36
                                            ]
                                        },
                                        {
                                            "condition": "Web Server 3 under heavier load",
                                            "sequence_numbers": [
                                                37,
                                                38,
                                                39,
                                                40
                                            ]
                                        }
                                    ]
                                }
                            ]
                        }
                    ]
                }
            ],
            "data": []
        },
        {
            "name": "Generic Load Balancer per service",
            "description": "This design pattern is a more specialized model on how the Load Balancer pattern works. In this variant a load balancer is deployed for each web service.",
            "structure": [
                {
                    "diagram_metadata": {
                        "diagram_type": "class",
                        "version": "2.0.0"
                    },
                    "name": "Logical view on Load Balancing with Load Balancers A and B",
                    "description": "This class diagram serves as a logical view on how a web application with Load Balancers for load balancing works. Web Service A and Web Service B are deployed on different Web Servers. Each Load Balancer decides to which Web Server the request shall be forwarded depending on the current load of each Web Server.",
                    "scope": "loose",
                    "classes": [
                        {
                            "id": "load_balancer_A",
                            "name": "Load Balancer A",
                            "stereotype": "component"
                        },
                        {
                            "id": "load_balancer_B",
                            "name": "Load Balancer B",
                            "stereotype": "component"
                        },
                        {
                            "id": "ws1",
                            "name": "Web Server 1",
                            "stereotype": "server",
                            "attributes": [
                                {
                                    "name": "Web Service A",
                                    "type": "Web Service"
                                },
                                {
                                    "name": "Web Service B",
                                    "type": "Web Service"
                                }
                            ]
                        },
                        {
                            "id": "ws2",
                            "name": "Web Server 2",
                            "stereotype": "server",
                            "attributes": [
                                {
                                    "name": "Web Service A",
                                    "type": "Web Service"
                                },
                                {
                                    "name": "Web Service B",
                                    "type": "Web Service"
                                }
                            ]
                        },
                        {
                            "id": "ws3",
                            "name": "Web Server 3",
                            "stereotype": "server",
                            "attributes": [
                                {
                                    "name": "Web Service A",
                                    "type": "Web Service"
                                },
                                {
                                    "name": "Web Service B",
                                    "type": "Web Service"
                                }
                            ]
                        },
                        {
                            "id": "internal",
                            "name": "Some Internal Server",
                            "stereotype": "server"
                        }
                    ],
                    "associations": [
                        {
                            "id": "rel1",
                            "name": "balances load",
                            "type": "association",
                            "entities": [
                                {
                                    "id": "load_balancer_A",
                                    "role": "source",
                                    "multiplicity": "1..*",
                                    "navigability": "not_navigable"
                                },
                                {
                                    "id": "ws1",
                                    "role": "target",
                                    "multiplicity": "1..*",
                                    "navigability": "unspecified"
                                }
                            ]
                        },
                        {
                            "id": "rel2",
                            "name": "balances load",
                            "type": "association",
                            "entities": [
                                {
                                    "id": "load_balancer_A",
                                    "role": "source",
                                    "multiplicity": "1..*",
                                    "navigability": "not_navigable"
                                },
                                {
                                    "id": "ws2",
                                    "role": "target",
                                    "multiplicity": "1..*",
                                    "navigability": "unspecified"
                                }
                            ]
                        },
                        {
                            "id": "rel3",
                            "name": "balances load",
                            "type": "association",
                            "entities": [
                                {
                                    "id": "load_balancer_A",
                                    "role": "source",
                                    "multiplicity": "1..*",
                                    "navigability": "not_navigable"
                                },
                                {
                                    "id": "ws3",
                                    "role": "target",
                                    "multiplicity": "1..*",
                                    "navigability": "unspecified"
                                }
                            ]
                        },
                        {
                            "id": "rel4",
                            "name": "balances load",
                            "type": "association",
                            "entities": [
                                {
                                    "id": "load_balancer_B",
                                    "role": "source",
                                    "multiplicity": "1..*",
                                    "navigability": "not_navigable"
                                },
                                {
                                    "id": "ws1",
                                    "role": "target",
                                    "multiplicity": "1..*",
                                    "navigability": "unspecified"
                                }
                            ]
                        },
                        {
                            "id": "rel5",
                            "name": "balances load",
                            "type": "association",
                            "entities": [
                                {
                                    "id": "load_balancer_B",
                                    "role": "source",
                                    "multiplicity": "1..*",
                                    "navigability": "not_navigable"
                                },
                                {
                                    "id": "ws2",
                                    "role": "target",
                                    "multiplicity": "1..*",
                                    "navigability": "unspecified"
                                }
                            ]
                        },
                        {
                            "id": "rel6",
                            "name": "balances load",
                            "type": "association",
                            "entities": [
                                {
                                    "id": "load_balancer_B",
                                    "role": "source",
                                    "multiplicity": "1..*",
                                    "navigability": "not_navigable"
                                },
                                {
                                    "id": "ws3",
                                    "role": "target",
                                    "multiplicity": "1..*",
                                    "navigability": "unspecified"
                                }
                            ]
                        },
                        {
                            "id": "rel7",
                            "name": "uses",
                            "type": "association",
                            "entities": [
                                {
                                    "id": "ws1",
                                    "role": "source",
                                    "multiplicity": "1..*",
                                    "navigability": "not_navigable"
                                },
                                {
                                    "id": "internal",
                                    "role": "target",
                                    "multiplicity": "1..*",
                                    "navigability": "unspecified"
                                }
                            ]
                        },
                        {
                            "id": "rel8",
                            "name": "uses",
                            "type": "association",
                            "entities": [
                                {
                                    "id": "ws2",
                                    "role": "source",
                                    "multiplicity": "1..*",
                                    "navigability": "not_navigable"
                                },
                                {
                                    "id": "internal",
                                    "role": "target",
                                    "multiplicity": "1..*",
                                    "navigability": "unspecified"
                                }
                            ]
                        },
                        {
                            "id": "rel9",
                            "name": "uses",
                            "type": "association",
                            "entities": [
                                {
                                    "id": "ws3",
                                    "role": "source",
                                    "multiplicity": "1..*",
                                    "navigability": "not_navigable"
                                },
                                {
                                    "id": "internal",
                                    "role": "target",
                                    "multiplicity": "1..*",
                                    "navigability": "unspecified"
                                }
                            ]
                        }
                    ]
                }
            ],
            "dynamics": [],
            "data": []
        },
        {
            "name": "Load Balancer with API Gateway",
            "description": "This solution pattern describes how a Load Balancer pattern works that balances the load for all services. This variant deploys a load balancer behind an API Gateway, which serves as the single point of entry to the system.",
            "structure": [
                {
                    "diagram_metadata": {
                        "diagram_type": "component",
                        "version": "1.0.0"
                    },
                    "name": "Web Application with Load Balancer and API Gateway",
                    "description": "Component diagram illustrating a web application with an API Gateway as the single point of entry, a Load Balancer, three public web services, and two internal services.",
                    "components": [
                        {
                            "id": "api_gateway",
                            "name": "API Gateway",
                            "stereotype": "component",
                            "ports": [
                                {
                                    "id": "api_gateway_port",
                                    "required_interfaces": [
                                        "public_interface"
                                    ],
                                    "provided_interfaces": [
                                        "internal_interface"
                                    ]
                                }
                            ]
                        },
                        {
                            "id": "load_balancer",
                            "name": "Load Balancer",
                            "stereotype": "component",
                            "ports": [
                                {
                                    "id": "lb_port",
                                    "required_interfaces": [
                                        "internal_interface"
                                    ],
                                    "provided_interfaces": [
                                        "ws1_interface",
                                        "ws2_interface",
                                        "ws3_interface"
                                    ]
                                }
                            ]
                        },
                        {
                            "id": "public_ws1",
                            "name": "Public Web Server 1",
                            "stereotype": "component",
                            "ports": [
                                {
                                    "id": "ws1_port",
                                    "required_interfaces": [
                                        "ws1_interface"
                                    ],
                                    "provided_interfaces": [
                                        "internal_interface"
                                    ]
                                }
                            ]
                        },
                        {
                            "id": "public_ws2",
                            "name": "Public Web Server 2",
                            "stereotype": "component",
                            "ports": [
                                {
                                    "id": "ws2_port",
                                    "required_interfaces": [
                                        "ws2_interface"
                                    ],
                                    "provided_interfaces": [
                                        "internal_interface"
                                    ]
                                }
                            ]
                        },
                        {
                            "id": "public_ws3",
                            "name": "Public Web Server 3",
                            "stereotype": "component",
                            "ports": [
                                {
                                    "id": "ws3_port",
                                    "required_interfaces": [
                                        "ws3_interface"
                                    ],
                                    "provided_interfaces": [
                                        "internal_interface"
                                    ]
                                }
                            ]
                        },
                        {
                            "id": "internal_server1",
                            "name": "Internal Server",
                            "stereotype": "component",
                            "ports": [
                                {
                                    "id": "is1_port",
                                    "required_interfaces": [
                                        "internal_interface"
                                    ]
                                }
                            ]
                        },
                        {
                            "id": "internal_server2",
                            "name": "Internal Server 2",
                            "stereotype": "component",
                            "ports": [
                                {
                                    "id": "is2_port",
                                    "required_interfaces": [
                                        "internal_interface"
                                    ]
                                }
                            ]
                        }
                    ],
                    "interfaces": [
                        {
                            "id": "public_interface"
                        },
                        {
                            "id": "internal_interface"
                        },
                        {
                            "id": "ws1_interface"
                        },
                        {
                            "id": "ws2_interface"
                        },
                        {
                            "id": "ws3_interface"
                        }
                    ],
                    "connectors": [
                        {
                            "id": "connector1",
                            "source": "api_gateway_port",
                            "target": "lb_port"
                        },
                        {
                            "id": "connector2",
                            "source": "lb_port",
                            "target": "ws1_port"
                        },
                        {
                            "id": "connector3",
                            "source": "lb_port",
                            "target": "ws2_port"
                        },
                        {
                            "id": "connector4",
                            "source": "lb_port",
                            "target": "ws3_port"
                        },
                        {
                            "id": "connector5",
                            "source": "ws1_port",
                            "target": "is1_port"
                        },
                        {
                            "id": "connector6",
                            "source": "ws2_port",
                            "target": "is1_port"
                        },
                        {
                            "id": "connector7",
                            "source": "ws3_port",
                            "target": "is2_port"
                        }
                    ]
                },
                {
                    "diagram_metadata": {
                        "diagram_type": "class",
                        "version": "2.0.0"
                    },
                    "name": "Logical view on Load Balancing with API Gateway",
                    "description": "This class diagram serves as a logical view on how a web application with an API Gateway and a Load Balancer for load balancing works. On each Web Server a replica of some Web Service A is deployed. Depending on the current load of each Web Server, which is monitored by the Load Balancer, the Load Balancer decides to which Web Server the request shall be forwarded.",
                    "scope": "loose",
                    "classes": [
                        {
                            "id": "api_gateway",
                            "name": "API Gateway",
                            "stereotype": "component"
                        },
                        {
                            "id": "load_balancer",
                            "name": "Load Balancer",
                            "stereotype": "component"
                        },
                        {
                            "id": "ws1",
                            "name": "Web Server 1",
                            "stereotype": "server",
                            "attributes": [
                                {
                                    "name": "Web Service A",
                                    "type": "Web Service"
                                }
                            ]
                        },
                        {
                            "id": "ws2",
                            "name": "Web Server 2",
                            "stereotype": "server",
                            "attributes": [
                                {
                                    "name": "Web Service A",
                                    "type": "Web Service"
                                }
                            ]
                        },
                        {
                            "id": "ws3",
                            "name": "Web Server 3",
                            "stereotype": "server",
                            "attributes": [
                                {
                                    "name": "Web Service A",
                                    "type": "Web Service"
                                }
                            ]
                        },
                        {
                            "id": "internal",
                            "name": "Some Internal Server",
                            "stereotype": "server"
                        }
                    ],
                    "associations": [
                        {
                            "id": "rel1",
                            "name": "forwards requests",
                            "type": "association",
                            "entities": [
                                {
                                    "id": "api_gateway",
                                    "role": "source",
                                    "multiplicity": "1..*",
                                    "navigability": "not_navigable"
                                },
                                {
                                    "id": "load_balancer",
                                    "role": "target",
                                    "multiplicity": "1..*",
                                    "navigability": "unspecified"
                                }
                            ]
                        },
                        {
                            "id": "rel2",
                            "name": "balances load",
                            "type": "association",
                            "entities": [
                                {
                                    "id": "load_balancer",
                                    "role": "source",
                                    "multiplicity": "1..*",
                                    "navigability": "not_navigable"
                                },
                                {
                                    "id": "ws1",
                                    "role": "target",
                                    "multiplicity": "1..*",
                                    "navigability": "unspecified"
                                }
                            ]
                        },
                        {
                            "id": "rel3",
                            "name": "balances load",
                            "type": "association",
                            "entities": [
                                {
                                    "id": "load_balancer",
                                    "role": "source",
                                    "multiplicity": "1..*",
                                    "navigability": "not_navigable"
                                },
                                {
                                    "id": "ws2",
                                    "role": "target",
                                    "multiplicity": "1..*",
                                    "navigability": "unspecified"
                                }
                            ]
                        },
                        {
                            "id": "rel4",
                            "name": "balances load",
                            "type": "association",
                            "entities": [
                                {
                                    "id": "load_balancer",
                                    "role": "source",
                                    "multiplicity": "1..*",
                                    "navigability": "not_navigable"
                                },
                                {
                                    "id": "ws3",
                                    "role": "target",
                                    "multiplicity": "1..*",
                                    "navigability": "unspecified"
                                }
                            ]
                        },
                        {
                            "id": "rel5",
                            "name": "uses",
                            "type": "association",
                            "entities": [
                                {
                                    "id": "ws1",
                                    "role": "source",
                                    "multiplicity": "1..*",
                                    "navigability": "not_navigable"
                                },
                                {
                                    "id": "internal",
                                    "role": "target",
                                    "multiplicity": "1..*",
                                    "navigability": "unspecified"
                                }
                            ]
                        },
                        {
                            "id": "rel6",
                            "name": "uses",
                            "type": "association",
                            "entities": [
                                {
                                    "id": "ws2",
                                    "role": "source",
                                    "multiplicity": "1..*",
                                    "navigability": "not_navigable"
                                },
                                {
                                    "id": "internal",
                                    "role": "target",
                                    "multiplicity": "1..*",
                                    "navigability": "unspecified"
                                }
                            ]
                        },
                        {
                            "id": "rel7",
                            "name": "uses",
                            "type": "association",
                            "entities": [
                                {
                                    "id": "ws3",
                                    "role": "source",
                                    "multiplicity": "1..*",
                                    "navigability": "not_navigable"
                                },
                                {
                                    "id": "internal",
                                    "role": "target",
                                    "multiplicity": "1..*",
                                    "navigability": "unspecified"
                                }
                            ]
                        }
                    ]
                }
            ],
            "dynamics": [
                {
                    "diagram_metadata": {
                        "diagram_type": "sequence",
                        "version": "1.0.0"
                    },
                    "name": "Load Balancing with Internal Load Monitoring",
                    "description": "This Sequence diagram shows how a Load Balancer monitors and forwards requests to different Web Servers based on their current load.",
                    "participants": [
                        {
                            "id": "actor1",
                            "name": "Client",
                            "type": "actor"
                        },
                        {
                            "id": "object1",
                            "name": "API Gateway",
                            "type": "object"
                        },
                        {
                            "id": "object2",
                            "name": "Load Balancer",
                            "type": "object"
                        },
                        {
                            "id": "object3",
                            "name": "Public Web Server 1",
                            "type": "object"
                        },
                        {
                            "id": "object4",
                            "name": "Public Web Server 2",
                            "type": "object"
                        },
                        {
                            "id": "object5",
                            "name": "Server of internal service",
                            "type": "object"
                        }
                    ],
                    "messages": [
                        {
                            "name": "Request",
                            "sender": "actor1",
                            "receiver": "object1",
                            "type": "synchronous",
                            "sequence_number": 1
                        },
                        {
                            "name": "Forward Request",
                            "sender": "object1",
                            "receiver": "object2",
                            "type": "synchronous",
                            "sequence_number": 2
                        },
                        {
                            "name": "Check Load",
                            "sender": "object2",
                            "receiver": "object2",
                            "type": "synchronous",
                            "sequence_number": 3
                        },
                        {
                            "name": "Forward to Public Web Server 1",
                            "sender": "object2",
                            "receiver": "object3",
                            "type": "synchronous",
                            "sequence_number": 4
                        },
                        {
                            "name": "Process Request",
                            "sender": "object3",
                            "receiver": "object5",
                            "type": "synchronous",
                            "sequence_number": 5
                        },
                        {
                            "name": "Response from Internal Service",
                            "sender": "object5",
                            "receiver": "object3",
                            "type": "reply",
                            "sequence_number": 6
                        },
                        {
                            "name": "Response to Load Balancer",
                            "sender": "object3",
                            "receiver": "object2",
                            "type": "reply",
                            "sequence_number": 7
                        },
                        {
                            "name": "Response to API Gateway",
                            "sender": "object2",
                            "receiver": "object1",
                            "type": "reply",
                            "sequence_number": 8
                        },
                        {
                            "name": "Response to Client",
                            "sender": "object1",
                            "receiver": "actor1",
                            "type": "reply",
                            "sequence_number": 9
                        },
                        {
                            "name": "Forward to Public Web Server 2",
                            "sender": "object2",
                            "receiver": "object4",
                            "type": "synchronous",
                            "sequence_number": 10
                        },
                        {
                            "name": "Process Request",
                            "sender": "object4",
                            "receiver": "object5",
                            "type": "synchronous",
                            "sequence_number": 11
                        },
                        {
                            "name": "Response from Internal Service",
                            "sender": "object5",
                            "receiver": "object4",
                            "type": "reply",
                            "sequence_number": 12
                        },
                        {
                            "name": "Response to Load Balancer",
                            "sender": "object4",
                            "receiver": "object2",
                            "type": "reply",
                            "sequence_number": 13
                        },
                        {
                            "name": "Response to API Gateway",
                            "sender": "object2",
                            "receiver": "object1",
                            "type": "reply",
                            "sequence_number": 14
                        },
                        {
                            "name": "Response to Client",
                            "sender": "object1",
                            "receiver": "actor1",
                            "type": "reply",
                            "sequence_number": 15
                        }
                    ],
                    "fragments": [
                        {
                            "type": "alt",
                            "blocks": [
                                {
                                    "condition": "Public Web Server 1 under less load",
                                    "sequence_numbers": [
                                        4,
                                        5,
                                        6,
                                        7,
                                        8,
                                        9
                                    ]
                                },
                                {
                                    "condition": "Public Web Server 2 under less load",
                                    "sequence_numbers": [
                                        10,
                                        11,
                                        12,
                                        13,
                                        14,
                                        15
                                    ]
                                }
                            ]
                        }
                    ]
                },
                {
                    "diagram_metadata": {
                        "diagram_type": "sequence",
                        "version": "1.0.0"
                    },
                    "name": "Load Balancing with Simultaneous Accesses",
                    "description": "This Sequence diagram shows how a Load Balancer forwards requests from multiple users to different Web Servers. By this the load balancer ensures that one Web Server does not get under heavy load when muliple users use the system at the same time. This example is simplified for sake of readability, par fragments for the Web Server loads are not added. We just assume that first Web Server 1, then Web Server 2, and then Web Server 3 is the most sufficient candidate to take over the user requests.",
                    "participants": [
                        {
                            "id": "actor1",
                            "name": "Client 1",
                            "type": "actor"
                        },
                        {
                            "id": "actor2",
                            "name": "Client 2",
                            "type": "actor"
                        },
                        {
                            "id": "actor3",
                            "name": "Client 3",
                            "type": "actor"
                        },
                        {
                            "id": "object1",
                            "name": "API Gateway",
                            "type": "object"
                        },
                        {
                            "id": "object2",
                            "name": "Load Balancer",
                            "type": "object"
                        },
                        {
                            "id": "object3",
                            "name": "Public Web Server 1",
                            "type": "object"
                        },
                        {
                            "id": "object4",
                            "name": "Public Web Server 2",
                            "type": "object"
                        },
                        {
                            "id": "object5",
                            "name": "Public Web Server 3",
                            "type": "object"
                        },
                        {
                            "id": "object6",
                            "name": "Internal Service 1",
                            "type": "object"
                        }
                    ],
                    "messages": [
                        {
                            "name": "Request",
                            "sender": "actor1",
                            "receiver": "object1",
                            "type": "synchronous",
                            "sequence_number": 1
                        },
                        {
                            "name": "Forward Request",
                            "sender": "object1",
                            "receiver": "object2",
                            "type": "synchronous",
                            "sequence_number": 2
                        },
                        {
                            "name": "Check Load",
                            "sender": "object2",
                            "receiver": "object2",
                            "type": "synchronous",
                            "sequence_number": 3
                        },
                        {
                            "name": "Forward to Public Web Server 1",
                            "sender": "object2",
                            "receiver": "object3",
                            "type": "synchronous",
                            "sequence_number": 4
                        },
                        {
                            "name": "Process Request",
                            "sender": "object3",
                            "receiver": "object6",
                            "type": "synchronous",
                            "sequence_number": 5
                        },
                        {
                            "name": "Response from Internal Service 1",
                            "sender": "object6",
                            "receiver": "object3",
                            "type": "reply",
                            "sequence_number": 6
                        },
                        {
                            "name": "Response to Load Balancer",
                            "sender": "object3",
                            "receiver": "object2",
                            "type": "reply",
                            "sequence_number": 7
                        },
                        {
                            "name": "Response to API Gateway",
                            "sender": "object2",
                            "receiver": "object1",
                            "type": "reply",
                            "sequence_number": 8
                        },
                        {
                            "name": "Response to Client 1",
                            "sender": "object1",
                            "receiver": "actor1",
                            "type": "reply",
                            "sequence_number": 9
                        },
                        {
                            "name": "Request",
                            "sender": "actor2",
                            "receiver": "object1",
                            "type": "synchronous",
                            "sequence_number": 10
                        },
                        {
                            "name": "Forward Request",
                            "sender": "object1",
                            "receiver": "object2",
                            "type": "synchronous",
                            "sequence_number": 11
                        },
                        {
                            "name": "Check Load",
                            "sender": "object2",
                            "receiver": "object2",
                            "type": "synchronous",
                            "sequence_number": 12
                        },
                        {
                            "name": "Forward to Public Web Server 2",
                            "sender": "object2",
                            "receiver": "object4",
                            "type": "synchronous",
                            "sequence_number": 13
                        },
                        {
                            "name": "Process Request",
                            "sender": "object4",
                            "receiver": "object6",
                            "type": "synchronous",
                            "sequence_number": 14
                        },
                        {
                            "name": "Response from Internal Service 1",
                            "sender": "object6",
                            "receiver": "object4",
                            "type": "reply",
                            "sequence_number": 15
                        },
                        {
                            "name": "Response to Load Balancer",
                            "sender": "object4",
                            "receiver": "object2",
                            "type": "reply",
                            "sequence_number": 16
                        },
                        {
                            "name": "Response to API Gateway",
                            "sender": "object2",
                            "receiver": "object1",
                            "type": "reply",
                            "sequence_number": 17
                        },
                        {
                            "name": "Response to Client 2",
                            "sender": "object1",
                            "receiver": "actor2",
                            "type": "reply",
                            "sequence_number": 18
                        },
                        {
                            "name": "Request",
                            "sender": "actor3",
                            "receiver": "object1",
                            "type": "synchronous",
                            "sequence_number": 19
                        },
                        {
                            "name": "Forward Request",
                            "sender": "object1",
                            "receiver": "object2",
                            "type": "synchronous",
                            "sequence_number": 20
                        },
                        {
                            "name": "Check Load",
                            "sender": "object2",
                            "receiver": "object2",
                            "type": "synchronous",
                            "sequence_number": 21
                        },
                        {
                            "name": "Forward to Public Web Server 3",
                            "sender": "object2",
                            "receiver": "object5",
                            "type": "synchronous",
                            "sequence_number": 22
                        },
                        {
                            "name": "Process Request",
                            "sender": "object5",
                            "receiver": "object6",
                            "type": "synchronous",
                            "sequence_number": 23
                        },
                        {
                            "name": "Response from Internal Service 1",
                            "sender": "object6",
                            "receiver": "object5",
                            "type": "reply",
                            "sequence_number": 24
                        },
                        {
                            "name": "Response to Load Balancer",
                            "sender": "object5",
                            "receiver": "object2",
                            "type": "reply",
                            "sequence_number": 25
                        },
                        {
                            "name": "Response to API Gateway",
                            "sender": "object2",
                            "receiver": "object1",
                            "type": "reply",
                            "sequence_number": 26
                        },
                        {
                            "name": "Response to Client 3",
                            "sender": "object1",
                            "receiver": "actor3",
                            "type": "reply",
                            "sequence_number": 27
                        }
                    ],
                    "fragments": [
                        {
                            "type": "par",
                            "blocks": [
                                {
                                    "sequence_numbers": [
                                        1,
                                        2,
                                        3,
                                        4,
                                        5,
                                        6,
                                        7,
                                        8,
                                        9
                                    ]
                                },
                                {
                                    "sequence_numbers": [
                                        10,
                                        11,
                                        12,
                                        13,
                                        14,
                                        15,
                                        16,
                                        17,
                                        18
                                    ]
                                },
                                {
                                    "sequence_numbers": [
                                        19,
                                        20,
                                        21,
                                        22,
                                        23,
                                        24,
                                        25,
                                        26,
                                        27
                                    ]
                                }
                            ]
                        }
                    ]
                }
            ],
            "data": []
        }
    ]
}